{
    "current_page": 1,
    "data": [
        {
            "fact": "A cat\u2019s hearing is better than a dog\u2019s. And a cat can hear high-frequency sounds up to two octaves higher than a human.",
            "length": 119
        },
        {
            "fact": "In the original Italian version of Cinderella, the benevolent fairy godmother figure was a cat.",
            "length": 95
        },
        {
            "fact": "Cats' hearing is much more sensitive than humans and dogs.",
            "length": 58
        },
        {
            "fact": "It has been scientifically proven that stroking a cat can lower one's blood pressure.",
            "length": 85
        },
        {
            "fact": "Cats are extremely sensitive to vibrations. Cats are said to detect earthquake tremors 10 or 15 minutes before humans can.",
            "length": 122
        },
        {
            "fact": "Tests done by the Behavioral Department of the Musuem of Natural History conclude that while a dog's memory lasts about 5 minutes, a cat's recall can last as long as 16 hours.",
            "length": 175
        },
        {
            "fact": "Some notable people who disliked cats:  Napoleon Bonaparte, Dwight D. Eisenhower, Hitler.",
            "length": 89
        },
        {
            "fact": "Abraham Lincoln loved cats. He had four of them while he lived in the White House.",
            "length": 82
        },
        {
            "fact": "The heaviest cat on record is Himmy, a Tabby from Queensland, Australia. He weighed nearly 47 pounds (21 kg). He died at the age of 10.",
            "length": 135
        },
        {
            "fact": "The earliest ancestor of the modern cat lived about 30 million years ago. Scientists called it the\u00a0Proailurus, which means \u201cfirst cat\u201d in Greek. The group of animals that pet cats belong to emerged around 12 million years ago.",
            "length": 226
        }
    ],
    "first_page_url": "https:\/\/catfact.ninja\/facts?page=1",
    "from": 1,
    "last_page": 34,
    "last_page_url": "https:\/\/catfact.ninja\/facts?page=34",
    "links": [
        {
            "url": null,
            "label": "Previous",
            "active": false
        },
        {
            "url": "https:\/\/catfact.ninja\/facts?page=1",
            "label": "1",
            "active": true
        },
        {
            "url": "https:\/\/catfact.ninja\/facts?page=2",
            "label": "2",
            "active": false
        },
        {
            "url": "https:\/\/catfact.ninja\/facts?page=3",
            "label": "3",
            "active": false
        },
        {
            "url": "https:\/\/catfact.ninja\/facts?page=4",
            "label": "4",
            "active": false
        },
        {
            "url": "https:\/\/catfact.ninja\/facts?page=5",
            "label": "5",
            "active": false
        },
        {
            "url": "https:\/\/catfact.ninja\/facts?page=6",
            "label": "6",
            "active": false
        },
        {
            "url": "https:\/\/catfact.ninja\/facts?page=7",
            "label": "7",
            "active": false
        },
        {
            "url": "https:\/\/catfact.ninja\/facts?page=8",
            "label": "8",
            "active": false
        },
        {
            "url": "https:\/\/catfact.ninja\/facts?page=9",
            "label": "9",
            "active": false
        },
        {
            "url": "https:\/\/catfact.ninja\/facts?page=10",
            "label": "10",
            "active": false
        },
        {
            "url": null,
            "label": "...",
            "active": false
        },
        {
            "url": "https:\/\/catfact.ninja\/facts?page=33",
            "label": "33",
            "active": false
        },
        {
            "url": "https:\/\/catfact.ninja\/facts?page=34",
            "label": "34",
            "active": false
        },
        {
            "url": "https:\/\/catfact.ninja\/facts?page=2",
            "label": "Next",
            "active": false
        }
    ],
    "next_page_url": "https:\/\/catfact.ninja\/facts?page=2",
    "path": "https:\/\/catfact.ninja\/facts",
    "per_page": 10,
    "prev_page_url": null,
    "to": 10,
    "total": 332
}